{
  "project_info": {
    "project_number": "608387241135",
    "firebase_url": "https://testesp32-72730-default-rtdb.firebaseio.com",
    "project_id": "testesp32-72730",
    "storage_bucket": "testesp32-72730.appspot.com"
  },
  "client": [
    {
      "client_info": {
        "mobilesdk_app_id": "1:608387241135:android:117a6d8d975585d511305a",
        "android_client_info": {
          "package_name": "com.unoen.power_monitor"
        }
      },
      "oauth_client": [
        {
          "client_id": "608387241135-goooesvt8t8p3ahaaa8shd2q7uk0e86k.apps.googleusercontent.com",
          "client_type": 3
        }
      ],
      "api_key": [
        {
          "current_key": "AIzaSyDzcjBZkCOdUtGifCRmLAjvRvncOsxOMc4"
        }
      ],
      "services": {
        "appinvite_service": {
          "other_platform_oauth_client": [
            {
              "client_id": "608387241135-goooesvt8t8p3ahaaa8shd2q7uk0e86k.apps.googleusercontent.com",
              "client_type": 3
            }
          ]
        }
      }
    }
  ],
  "configuration_version": "1"
}